<?xml version="1.0" encoding="utf-8"?>
<!-- Generator: Adobe Illustrator 21.0.0, SVG Export Plug-In . SVG Version: 6.00 Build 0)  -->
<svg version="1.1" id="Layer_1" xmlns="http://www.w3.org/2000/svg" xmlns:xlink="http://www.w3.org/1999/xlink" x="0px" y="0px"
	 viewBox="0 0 103.2 32" style="enable-background:new 0 0 103.2 32;" xml:space="preserve">
<style type="text/css">
	.st0{fill:#FFFFFF;}
</style>
<g>
	<path class="st0" d="M24.6,1.7l-5.9,22.9c-0.5,2.1-1.2,3.6-1.9,4.6c-1,1.4-2.5,2.1-4.3,2.1s-3.3-0.7-4.3-2.1
		c-0.8-1-1.4-2.5-1.9-4.6l-6-22.9h7.3l3.8,15.4c0.3,1.2,0.7,3,1.1,5.2c0.2-1.1,0.5-2.9,1-5.2l3.9-15.4C17.4,1.7,24.6,1.7,24.6,1.7z"
		/>
	<path class="st0" d="M25.4,4.6c0-1,0.4-1.9,1.1-2.7c0.7-0.7,1.6-1.1,2.7-1.1s1.9,0.4,2.7,1.1C32.6,2.7,33,3.6,33,4.6
		c0,1.1-0.4,1.9-1.1,2.7c-0.7,0.7-1.6,1.1-2.7,1.1s-2-0.4-2.7-1.1S25.4,5.7,25.4,4.6z M25.9,30.8V10.2h6.6v20.6H25.9z"/>
	<path class="st0" d="M56.1,1.7v17.1c0,1.9-0.1,3.2-0.2,4.1c-0.4,2.4-1.6,4.4-3.5,6c-1.9,1.5-4.1,2.3-6.6,2.3c-3.1,0-5.6-1-7.5-3
		s-2.9-4.5-2.9-7.6s1-5.6,2.9-7.6s4.4-3,7.5-3c0.8,0,1.8,0.1,2.8,0.3V17c-1-0.3-1.9-0.5-2.6-0.5c-1.2,0-2.2,0.4-2.9,1.1
		s-1.1,1.7-1.1,3c0,1.2,0.3,2.2,1,2.9c0.7,0.8,1.6,1.2,2.8,1.2c2.6,0,3.8-1.5,3.8-4.6V1.7H56.1z"/>
	<path class="st0" d="M80.3,23.1c-1,2.5-2.5,4.4-4.3,5.8c-2,1.5-4.3,2.2-6.8,2.2c-2.9,0-5.4-1.1-7.4-3.2s-3-4.6-3-7.5s1-5.4,3-7.5
		s4.5-3.1,7.4-3.1c4.3,0,7.5,2.2,9.7,6.5l-10,6.8l-2.5-3.8l5.4-3.8c-0.7-0.5-1.5-0.7-2.3-0.7c-1.3,0-2.4,0.5-3.3,1.5
		s-1.3,2.2-1.3,3.5c0,1.4,0.4,2.5,1.2,3.5c0.9,1,2,1.6,3.3,1.6c2.5,0,4.5-1.4,5.9-4.2L80.3,23.1z"/>
	<path class="st0" d="M81.8,20.5c0-2.9,1-5.4,3-7.5s4.5-3.2,7.4-3.2s5.4,1,7.4,3.1s3,4.6,3,7.5c0,3-1,5.5-3,7.6s-4.5,3.1-7.4,3.1
		s-5.4-1.1-7.4-3.2C82.8,25.9,81.8,23.4,81.8,20.5z M88.4,20.4c0,1.1,0.3,2.1,1,2.9c0.7,0.9,1.6,1.3,2.7,1.3s2-0.4,2.7-1.3
		c0.7-0.8,1.1-1.8,1.1-2.9s-0.4-2.1-1.1-2.9c-0.7-0.9-1.6-1.3-2.7-1.3s-2,0.4-2.7,1.3C88.8,18.3,88.4,19.3,88.4,20.4z"/>
</g>
</svg>
