<?xml version="1.0" encoding="utf-8"?>
<!-- Generator: Adobe Illustrator 21.1.0, SVG Export Plug-In . SVG Version: 6.00 Build 0)  -->
<svg version="1.1" id="Layer_1" xmlns="http://www.w3.org/2000/svg" xmlns:xlink="http://www.w3.org/1999/xlink" x="0px" y="0px"
	 width="145px" height="38.8px" viewBox="0 0 145 38.8" style="enable-background:new 0 0 145 38.8;" xml:space="preserve">
<style type="text/css">
	.st0{fill:#E7343C;}
	.st1{fill:#FEFEFE;}
</style>
<g>
	<path class="st0" d="M1.5,0.8h14.8c1.4,0,2.5,0.4,3.4,1.1c0.9,0.8,1.4,1.9,1.4,3.2c0,1.1-0.4,2.2-1.2,3.3L9.4,23h11.8v7H4.8
		c-1.4,0-2.5-0.4-3.4-1.1C0.5,28.1,0,27,0,25.6c0-1.1,0.4-2.3,1.2-3.3L12,7.6H1.5V0.8"/>
	<path class="st1" d="M23,24.1h7.8c0.8,0,1.2-0.3,1.2-0.8c0-0.4-0.2-0.7-0.6-0.8c-2.9-1.2-4.6-2.1-5.3-2.5c-1.8-1.3-2.7-2.9-2.7-4.9
		c0-2,0.8-3.4,2.3-4.4c1.3-0.9,3-1.3,5-1.3h7v5.6h-7c-0.7,0-1,0.3-1,0.8c0,0.4,0.2,0.6,0.5,0.8c3,1.3,4.9,2.2,5.6,2.6
		c2,1.3,2.9,3,2.9,5c0,1-0.2,1.9-0.7,2.7c-0.8,1.4-1.9,2.3-3.5,2.8c-1,0.3-2.5,0.4-4.5,0.4H23V24.1z"/>
	<path class="st1" d="M41.6,38.8V20.7c0-1.6,0.1-2.8,0.2-3.6c0.4-2.4,1.6-4.4,3.5-6c1.9-1.5,4.1-2.3,6.6-2.3c3.1,0,5.6,1,7.5,3
		c1.9,2,2.9,4.5,2.9,7.6c0,3.1-1,5.6-2.9,7.6c-1.9,2-4.4,3-7.5,3c-0.8,0-1.8-0.1-2.8-0.3v-6.7c1.1,0.4,2,0.5,2.6,0.5
		c1.2,0,2.2-0.4,2.9-1.1c0.7-0.7,1.1-1.7,1.1-3c0-1.2-0.3-2.2-1-2.9c-0.7-0.8-1.6-1.1-2.8-1.1c-2.6,0-3.8,1.5-3.8,4.6v18.7H41.6z"/>
	<path class="st1" d="M85.9,22.3c-1,2.5-2.5,4.4-4.4,5.8c-2,1.5-4.3,2.2-6.9,2.2c-2.9,0-5.4-1.1-7.4-3.2c-2-2.1-3-4.6-3-7.5
		c0-2.9,1-5.4,3-7.5c2-2.1,4.5-3.1,7.4-3.1c4.3,0,7.5,2.2,9.7,6.5l-10,6.8l-2.5-3.8l5.4-3.8c-0.7-0.5-1.5-0.7-2.3-0.7
		c-1.3,0-2.4,0.5-3.3,1.5c-0.9,1-1.3,2.2-1.3,3.5c0,1.4,0.4,2.5,1.2,3.5c0.9,1,2,1.6,3.3,1.6c2.5,0,4.5-1.4,5.9-4.2L85.9,22.3z"/>
	<path class="st1" d="M101.8,15.6c-2.2,0-3.3,0-3.4,0c-1.3,0.1-2.4,0.5-3.1,1.1c-0.9,0.8-1.4,1.7-1.4,2.9c0,1.2,0.5,2.2,1.4,2.9
		c0.8,0.6,1.8,1,3.1,1.1c0.1,0,1.2,0,3.4,0V30h-2.4c-3.4,0-6.2-0.8-8.4-2.5c-2.4-1.9-3.6-4.5-3.6-7.8c0-3.3,1.2-5.9,3.6-7.8
		c2.2-1.7,5-2.5,8.4-2.5h2.4V15.6z"/>
	<path class="st1" d="M104.1,3.8c0-1,0.4-1.9,1.1-2.7c0.7-0.7,1.6-1.1,2.7-1.1s2,0.4,2.7,1.1c0.7,0.7,1.1,1.6,1.1,2.7
		c0,1.1-0.4,2-1.1,2.7c-0.7,0.7-1.6,1.1-2.7,1.1s-2-0.4-2.7-1.1C104.5,5.7,104.1,4.8,104.1,3.8z M104.6,30V9.3h6.6V30H104.6z"/>
	<path class="st1" d="M128.4,30v-9.8c0-3.1-1.3-4.6-4-4.6c-1.1,0-2.1,0.4-2.7,1.2c-0.6,0.8-0.9,1.7-0.9,2.9c0,1.3,0.4,2.3,1.1,3
		c0.7,0.7,1.7,1.1,2.9,1.1c0.6,0,1.4-0.2,2.6-0.5v6.7c-1.1,0.2-2,0.3-2.8,0.3c-3.1,0-5.6-1-7.5-3c-1.9-2-2.9-4.5-2.9-7.6
		c0-3.1,1-5.6,2.9-7.6c1.9-2,4.4-3,7.5-3c2.5,0,4.7,0.8,6.6,2.3c1.9,1.5,3.1,3.5,3.5,6c0.1,0.9,0.2,2.2,0.2,4.1V30H128.4z"/>
	<path class="st1" d="M138.4,30V0.8h6.6V30H138.4z"/>
</g>
</svg>
